module github.com/zjzjzjzj1874/go-zero

go 1.18

require github.com/zeromicro/go-zero v1.3.3

require (
	github.com/beorn7/perks v1.0.1 // indirect
	github.com/cespare/xxhash/v2 v2.1.2 // indirect
	github.com/go-logr/logr v1.2.2 // indirect
	github.com/go-logr/stdr v1.2.2 // indirect
	github.com/golang-jwt/jwt/v4 v4.2.0 // indirect
	github.com/golang/protobuf v1.5.2 // indirect
	github.com/google/uuid v1.3.0 // indirect
	github.com/justinas/alice v1.2.0 // indirect
	github.com/matttproud/golang_protobuf_extensions v1.0.2-0.20181231171920-c182affec369 // indirect
	github.com/openzipkin/zipkin-go v0.4.0 // indirect
	github.com/prometheus/client_golang v1.11.0 // indirect
	github.com/prometheus/client_model v0.2.0 // indirect
	github.com/prometheus/common v0.30.0 // indirect
	github.com/prometheus/procfs v0.7.3 // indirect
	github.com/spaolacci/murmur3 v1.1.0 // indirect
	go.opentelemetry.io/otel v1.3.0 // indirect
	go.opentelemetry.io/otel/exporters/jaeger v1.3.0 // indirect
	go.opentelemetry.io/otel/exporters/zipkin v1.3.0 // indirect
	go.opentelemetry.io/otel/sdk v1.3.0 // indirect
	go.opentelemetry.io/otel/trace v1.3.0 // indirect
	go.uber.org/automaxprocs v1.4.0 // indirect
	golang.org/x/sys v0.0.0-20220422013727-9388b58f7150 // indirect
	google.golang.org/grpc v1.46.0 // indirect
	google.golang.org/protobuf v1.28.0 // indirect
	gopkg.in/yaml.v2 v2.4.0 // indirect
)
